product_code,qty
23N-SDN-TC-05,2
23N-SDN-TC-04,2
23N-SDN-TC-03.,1
23N-SDN-TC-02.,1
23N-SDN-TC-01,1
23N-SDN-TC-06,1
23N-SDN-TC-07,1
23N-SDN-TC-08,1
23N-SDN-TC-09.,1
23N-SDN-TC-10,4
23N-SDN-TC-11,1
23N-SDN-TC-12,1
23N-SDN-TC-13,1
23N-SDN-TC-14,1
23N-SDN-TC-15,1
23N-SDN-TC-16,1
W-EL_2,4
H-NUT_007,2
KN_006,2
AB_028,4
T_CUTTER_01,1
