product_code,qty
23C_NACT_TA_001,1
23C_NACT_TA_002,1
23C_NACT_TA_003,14
23C_NACT_TA_005,3
23C_NACT_TA_008,3
23C_NACT_TA_009_1,5
23C_NACT_TA_009_2,5
23C_NACT_TA_009_3,5
23C_NACT_TA_0010,3
23C_NACT_TA_0011,1
23C_NACT_TA_0012,5
23C_NACT_TA_0013,3
23C_NACT_TA_0014,3
23C_NACT_TA_0015,11
23C_NACT_sw_0003_1,4
23C_NACT_sw_0003_2,4
23C_NACT_sw_0003_3,4
