product_name,product_code,unit_type,unit,specification,make,model,location,remark,price
Mounting Plate,Mounting_Plate_01,Nos,0,Machining,Any,Any,Noida,SDN,
Silicon Part,Silicon_Part_01,Nos,0,PU Part,Any,Any,Noida,SDN,
SS Hinge,SS_Hinge_01,Nos,0,"2""",Any,Any,Noida,SDN,
