product_name,product_code,unit_type,unit,specification,make,model,location,remark,price
Samsung,23456BDT,PC,12,fdgdf,dsfsadf,dsfds,dsgdsg,dgdf,1000
dsgfdg,A9N99691,PC,223,fgfds,fdgfds,fdg,cb,rger,2000
