product_name,product_code,unit_type,unit,specification,make,model,location,remark,price
ILLUMUNATION PUSH BUTTON GREEN WITH NO ELEMENT,LIG_PUSH_BTN01,NOS,0,"24VDC, CONTROL BOX TYPE",KOINO,ANY,CHENNAI,STD,0
ILLUMUNATION PUSH BUTTON WHITE WITH NO ELEMENT,LIG_PUSH_BTN02,NOS,0,"24VDC, CONTROL BOX TYPE",KOINO,ANY,CHENNAI,STD,0
EMERGRNCY STOP MUSHROOM TYPE WITH NC ELEMENT,EMG_PUSH_BTN,NOS,0,"24VDC, CONTROL BOX TYPE",KOINO,ANY,CHENNAI,STD,0
16A DP MCB WITH MS BOX,MCB_MS_BOX,NOS,0,2POLE 16AMP MCB WITH MS BOX,ANY,ANY,CHENNAI,STD,0
CABLE DUCT,CABLE_DUCT,MTRS,0,25X25,ANY,ANY,CHENNAI,STD,0
CABLE,CABLE_01,MTRS,0,1.5SQMM 3CORE,POLYCAB/FINOLEX,ANY,CHENNAI,STD,0
LED TUBE LIGHT,LED_TUBE_LGT,NOS,0,"20W, 4INCHES LENGTH",ANY,ANY,CHENNAI,STD,0
12 MODEL SWITCH BOX WITH 4 SWITCH(16A) & 4 SOCKET (16A),SWITCH_BOX,SET,0,16A EACH SOCKET AND 16A EACH BUTTON,,ANY,CHENNAI,STD,0
CABLE,CABLE_02,MTRS,0,1SQMM 3CORE,POLYCAB/FINOLEX,ANY,CHENNAI,STD,0
