product_name,product_code,unit_type,unit,specification,make,model,location,remark,price
DRIVE  BASE PLATE,PA3016_1,Nos,0,DRG,MS,STD,Chennai,Donsung Project,1
LM RAIL FIXING PLATE-1,Y3021_1,Nos,0,DRG,MS,STD,Chennai,Donsung Project,1
LM RAIL FIXING PLATE-2,Y3022_1,Nos,0,DRG,MS,STD,Chennai,Donsung Project,1
SERVO MOTOR MOUNT PLATE,PA3017_1,Nos,0,DRG,MS,STD,Chennai,Donsung Project,1
LEAD SCREW  MOUNT BLOCK-1,PA3018_1,Nos,0,DRG,MS,STD,Chennai,Donsung Project,1
LEAD SCREW  MOUNT BLOCK-2,PA3019_1,Nos,0,DRG,MS,STD,Chennai,Donsung Project,1
BALL SCREW GUIDE BLOCK,PA3020_1,Nos,0,DRG,MS,STD,Chennai,Donsung Project,1
SERVO MECHANISAM ASSY,A3010_1,Nos,0,DRG,MS,STD,Chennai,Donsung Project,1
STOPPER BLOCK,PA3022_1,Nos,0,DRG,MS,STD,Chennai,Donsung Project,1
BEARING END COVER,PA3023_1,Nos,0,DRG,MS,STD,Chennai,Donsung Project,1
SERVO DRIVE COUPLING,PA3024_1,Nos,0,DRG,MS,STD,Chennai,Donsung Project,1
