product_name,product_code,unit_type,unit,specification,make,model,location,remark,price
MS ANGLE -100X100X10T,MSANGLE_100,Nos ,0,STD,STD,STD,Chennai,Powder Coating Project,1
SS ANGLE - 40X40X3T,SSANGLE_3T,Nos ,0,STD,STD,STD,Chennai,Powder Coating Project,1
SS ANGLE - 40X40X5T,SSANGLE_5T,Nos ,0,STD,STD,STD,Chennai,Powder Coating Project,1
I BEAM (S100) -100X100X6T,IBEAM_100,Nos ,0,STD,STD,STD,Chennai,Powder Coating Project,1
I BEAM NPB (250X175),IBEAM_250,Nos ,0,STD,STD,STD,Chennai,Powder Coating Project,1
C CHANNEL-100x50X5T ( MC100 ),CCHANEL_100,Nos ,0,STD,STD,STD,Chennai,Powder Coating Project,1
C CHANNEL-200x75X6.2T ( MPC200 ),CCHANEL_200,Nos ,0,STD,STD,STD,Chennai,Powder Coating Project,1
MS REC.TUBE-100X50X4T,MSRECT_100,Nos ,0,STD,STD,STD,Chennai,Powder Coating Project,1
MS SQ.TUBE-50X50X3T,MSSQ_50,Nos ,0,STD,STD,STD,Chennai,Powder Coating Project,1
MS SQ.TUBE-60X60X3T,MSSQ_60,Nos ,0,STD,STD,STD,Chennai,Powder Coating Project,1
OD1''X1.6T ( SS 305 ) PIPE,PIPE_1 inch ,Nos ,0,STD,STD,STD,Chennai,Powder Coating Project,1
MS ROUND TUBE ( OD33.4X4T ),MSROUN_33,Nos ,0,STD,STD,STD,Chennai,Powder Coating Project,1
MS SHEET-3000X1500X1.6T,MSSHEET_1.6,Nos ,0,STD,STD,STD,Chennai,Powder Coating Project,1
MS SHEET-3000X1500X2T,MSSHEET_2,Nos ,0,STD,STD,STD,Chennai,Powder Coating Project,1
MS SHEET- 3000X1500X3T,MSSHEET_3,Nos ,0,STD,STD,STD,Chennai,Powder Coating Project,1
MS SHEET- 3000X1500X4T,MSSHEET_4,Nos ,0,STD,STD,STD,Chennai,Powder Coating Project,1
MS CHECKED SHEET- 3000X1500X2T,MSCHEK_2,Nos ,0,STD,STD,STD,Chennai,Powder Coating Project,1
SS305(2B) SHEET-3000X1500X2.5T,SSSHEET_2.5,Nos ,0,STD,STD,STD,Chennai,Powder Coating Project,1
