product_name,product_code,unit_type,unit,specification,make,model,location,remark,price
GLAND ( PG 36 ),GLAND_36,Nos,0,STD,STD,STD,CHENNAI,Dongsung Project,1
COPPER 2.5 LUG,PINLUG_1,Nos,0,STD,STD,STD,CHENNAI,Dongsung Project,1
RJ45 JACK,RJ45_1,Nos,0,STD,STD,STD,CHENNAI,Dongsung Project,1
EXT BOARD 5 Mtr,EXT_1,Nos,0,STD,STD,STD,CHENNAI,Dongsung Project,1
