product_name,product_code,unit_type,unit,specification,make,model,location,remark,price
DRILL BIT 4.2 MM,BIT_4.2,set,0,STD,STD,STD,CHENNAI,Fab work,1
DRILL BIT 5.2 MM,BIT_5.2,set,0,STD,STD,STD,CHENNAI,Fab work,1
TAP SET 5 MM,TAP_5,set,0,STD,STD,STD,CHENNAI,Fab work,1
TAP SET 8 MM,TAP_8,set,0,STD,STD,STD,CHENNAI,Fab work,1
CARBON BRUSH,BRUSHCA_1,set,0,STD,STD,STD,CHENNAI,Fab work,1
50 Mtr roll tape ( FREEMANS ),Roll_50,nos,0,STD,STD,STD,CHENNAI,Fab work,1
