product_name,product_code,unit_type,unit,specification,make,model,location,remark,price
V Block,Dong_801,Nos,0,STD,STD,STD,Chennai,Dongsung Project,1
Small Base Plate ,Dong_802,Nos,0,STD,STD,STD,Chennai,Dongsung Project,1
Base plate rework,Dong_803,Nos,0,STD,STD,STD,Chennai,Dongsung Project,1
Transport,Dong_804,Nos,0,STD,STD,STD,Chennai,Dongsung Project,1
