product_name,product_code,unit_type,unit,specification,make,model,location,remark,price
Roller Bracket,Lego_01,Set,0,As per Dwg.,Any,Any,Noida,lego stocker parts,
Front cover,Lego_02,Nos,0,As per Dwg.,Any,Any,Noida,lego stocker parts,
Wiring plate,Lego_03,Nos,0,As per Dwg.,Any,Any,Noida,lego stocker parts,
Middle con. Cover,Lego_04,Set,0,As per Dwg.,Any,Any,Noida,lego stocker parts,
Panel assembly,Lego_05,Nos,0,As per Dwg.,Any,Any,Noida,lego stocker parts,
Sensor Bracket,Lego_06,Nos,0,As per Dwg.,Any,Any,Noida,lego stocker parts,
Camera plate 3,Lego_07,Nos,0,As per Dwg.,Any,Any,Noida,lego stocker parts,
Camera plate 2,Lego_08,Nos,0,As per Dwg.,Any,Any,Noida,lego stocker parts,
Side cover,Lego_09,Nos,0,As per Dwg.,Any,Any,Noida,lego stocker parts,
Curtain sensor cover,Lego_10,Nos,0,As per Dwg.,Any,Any,Noida,lego stocker parts,
Moller controller plate,Lego_11,Nos,0,As per Dwg.,Any,Any,Noida,lego stocker parts,
Belt support tray,Lego_12,Nos,0,As per Dwg.,Any,Any,Noida,lego stocker parts,
Roller Assy.,Lego_13,Nos,0,Roller OD 30 mm,Any,Any,Noida,lego stocker parts,
